tests/uart/vunit_out/tests/tb_uart_lib.tb_uart_tx.test_send_many_bytes/ghdl/wave.vcd
$date
  Mon Nov  2 16:40:23 2015
$end
$version
  GHDL v0
$end
$timescale
  1 fs
$end
$var reg 1 ! clk $end
$var reg 1 " tx $end
$var reg 1 # tready $end
$var reg 1 $ tvalid $end
$var reg 8 % tdata[7:0] $end
$var integer 32 & num_sent $end
$var integer 32 ' num_recv $end
$scope module dut $end
$var reg 1 ( clk $end
$var reg 1 ) tx $end
$var reg 1 * tready $end
$var reg 1 + tvalid $end
$var reg 8 , tdata[7:0] $end
$var reg 1 - tready_int $end
$upscope $end
$enddefinitions $end
#0
0!
1"
0#
1$
b11111001 %
b0 &
b0 '
0(
1)
0*
1+
b11111001 ,
0-
#10000000
1!
1#
1(
1)
1*
1-
#20000000
0!
0(
#30000000
1!
0#
b10100111 %
b1 &
1(
1)
0*
b10100111 ,
0-
#40000000
0!
0(
#50000000
1!
0"
1(
0)
#60000000
0!
0(
#70000000
1!
1(
0)
#80000000
0!
0(
#90000000
1!
1(
0)
#100000000
0!
0(
#110000000
1!
1(
0)
#120000000
0!
0(
#130000000
1!
1(
0)
#140000000
0!
0(
#150000000
1!
1(
0)
#160000000
0!
0(
#170000000
1!
1(
0)
#180000000
0!
0(
#190000000
1!
1(
0)
#200000000
0!
0(
#210000000
1!
1(
0)
#220000000
0!
0(
#230000000
1!
1(
0)
#240000000
0!
0(
#250000000
1!
1(
0)
#260000000
0!
0(
#270000000
1!
1(
0)
#280000000
0!
0(
#290000000
1!
1(
0)
#300000000
0!
0(
#310000000
1!
1(
0)
#320000000
0!
0(
#330000000
1!
1(
0)
#340000000
0!
0(
#350000000
1!
1(
0)
#360000000
0!
0(
#370000000
1!
1(
0)
#380000000
0!
0(
#390000000
1!
1(
0)
#400000000
0!
0(
#410000000
1!
1(
0)
#420000000
0!
0(
#430000000
1!
1(
0)
#440000000
0!
0(
#450000000
1!
1(
0)
#460000000
0!
0(
#470000000
1!
1(
0)
#480000000
0!
0(
#490000000
1!
1(
0)
#500000000
0!
0(
#510000000
1!
1(
0)
#520000000
0!
0(
#530000000
1!
1(
0)
#540000000
0!
0(
#550000000
1!
1(
0)
#560000000
0!
0(
#570000000
1!
1(
0)
#580000000
0!
0(
#590000000
1!
1(
0)
#600000000
0!
0(
#610000000
1!
1(
0)
#620000000
0!
0(
#630000000
1!
1(
0)
#640000000
0!
0(
#650000000
1!
1(
0)
#660000000
0!
0(
#670000000
1!
1(
0)
#680000000
0!
0(
#690000000
1!
1(
0)
#700000000
0!
0(
#710000000
1!
1(
0)
#720000000
0!
0(
#730000000
1!
1(
0)
#740000000
0!
0(
#750000000
1!
1(
0)
#760000000
0!
0(
#770000000
1!
1(
0)
#780000000
0!
0(
#790000000
1!
1(
0)
#800000000
0!
0(
#810000000
1!
1(
0)
#820000000
0!
0(
#830000000
1!
1(
0)
#840000000
0!
0(
#850000000
1!
1(
0)
#860000000
0!
0(
#870000000
1!
1(
0)
#880000000
0!
0(
#890000000
1!
1(
0)
#900000000
0!
0(
#910000000
1!
1(
0)
#920000000
0!
0(
#930000000
1!
1(
0)
#940000000
0!
0(
#950000000
1!
1(
0)
#960000000
0!
0(
#970000000
1!
1(
0)
#980000000
0!
0(
#990000000
1!
1(
0)
#1000000000
0!
0(
#1010000000
1!
1(
0)
#1020000000
0!
0(
#1030000000
1!
1(
0)
#1040000000
0!
0(
#1050000000
1!
1(
0)
#1060000000
0!
0(
#1070000000
1!
1(
0)
#1080000000
0!
0(
#1090000000
1!
1(
0)
#1100000000
0!
0(
#1110000000
1!
1(
0)
#1120000000
0!
0(
#1130000000
1!
1(
0)
#1140000000
0!
0(
#1150000000
1!
1(
0)
#1160000000
0!
0(
#1170000000
1!
1(
0)
#1180000000
0!
0(
#1190000000
1!
1(
0)
#1200000000
0!
0(
#1210000000
1!
1(
0)
#1220000000
0!
0(
#1230000000
1!
1(
0)
#1240000000
0!
0(
#1250000000
1!
1(
0)
#1260000000
0!
0(
#1270000000
1!
1(
0)
#1280000000
0!
0(
#1290000000
1!
1(
0)
#1300000000
0!
0(
#1310000000
1!
1(
0)
#1320000000
0!
0(
#1330000000
1!
1(
0)
#1340000000
0!
0(
#1350000000
1!
1(
0)
#1360000000
0!
0(
#1370000000
1!
1(
0)
#1380000000
0!
0(
#1390000000
1!
1(
0)
#1400000000
0!
0(
#1410000000
1!
1(
0)
#1420000000
0!
0(
#1430000000
1!
1(
0)
#1440000000
0!
0(
#1450000000
1!
1(
0)
#1460000000
0!
0(
#1470000000
1!
1(
0)
#1480000000
0!
0(
#1490000000
1!
1(
0)
#1500000000
0!
0(
#1510000000
1!
1(
0)
#1520000000
0!
0(
#1530000000
1!
1(
0)
#1540000000
0!
0(
#1550000000
1!
1(
0)
#1560000000
0!
0(
#1570000000
1!
1(
0)
#1580000000
0!
0(
#1590000000
1!
1(
0)
#1600000000
0!
0(
#1610000000
1!
1(
0)
#1620000000
0!
0(
#1630000000
1!
1(
0)
#1640000000
0!
0(
#1650000000
1!
1(
0)
#1660000000
0!
0(
#1670000000
1!
1(
0)
#1680000000
0!
0(
#1690000000
1!
1(
0)
#1700000000
0!
0(
#1710000000
1!
1(
0)
#1720000000
0!
0(
#1730000000
1!
1(
0)
#1740000000
0!
0(
#1750000000
1!
1(
0)
#1760000000
0!
0(
#1770000000
1!
1(
0)
#1780000000
0!
0(
#1790000000
1!
1(
0)
#1800000000
0!
0(
#1810000000
1!
1(
0)
#1820000000
0!
0(
#1830000000
1!
1(
0)
#1840000000
0!
0(
#1850000000
1!
1(
0)
#1860000000
0!
0(
#1870000000
1!
1(
0)
#1880000000
0!
0(
#1890000000
1!
1(
0)
#1900000000
0!
0(
#1910000000
1!
1(
0)
#1920000000
0!
0(
#1930000000
1!
1(
0)
#1940000000
0!
0(
#1950000000
1!
1(
0)
#1960000000
0!
0(
#1970000000
1!
1(
0)
#1980000000
0!
0(
#1990000000
1!
1(
0)
#2000000000
0!
0(
#2010000000
1!
1(
0)
#2020000000
0!
0(
#2030000000
1!
1(
0)
#2040000000
0!
0(
#2050000000
1!
1(
0)
#2060000000
0!
0(
#2070000000
1!
1(
0)
#2080000000
0!
0(
#2090000000
1!
1(
0)
#2100000000
0!
0(
#2110000000
1!
1(
0)
#2120000000
0!
0(
#2130000000
1!
1(
0)
#2140000000
0!
0(
#2150000000
1!
1(
0)
#2160000000
0!
0(
#2170000000
1!
1(
0)
#2180000000
0!
0(
#2190000000
1!
1(
0)
#2200000000
0!
0(
#2210000000
1!
1(
0)
#2220000000
0!
0(
#2230000000
1!
1(
0)
#2240000000
0!
0(
#2250000000
1!
1(
0)
#2260000000
0!
0(
#2270000000
1!
1(
0)
#2280000000
0!
0(
#2290000000
1!
1(
0)
#2300000000
0!
0(
#2310000000
1!
1(
0)
#2320000000
0!
0(
#2330000000
1!
1(
0)
#2340000000
0!
0(
#2350000000
1!
1(
0)
#2360000000
0!
0(
#2370000000
1!
1(
0)
#2380000000
0!
0(
#2390000000
1!
1(
0)
#2400000000
0!
0(
#2410000000
1!
1(
0)
#2420000000
0!
0(
#2430000000
1!
1(
0)
#2440000000
0!
0(
#2450000000
1!
1(
0)
#2460000000
0!
0(
#2470000000
1!
1(
0)
#2480000000
0!
0(
#2490000000
1!
1(
0)
#2500000000
0!
0(
#2510000000
1!
1(
0)
#2520000000
0!
0(
#2530000000
1!
1(
0)
#2540000000
0!
0(
#2550000000
1!
1(
0)
#2560000000
0!
0(
#2570000000
1!
1(
0)
#2580000000
0!
0(
#2590000000
1!
1(
0)
#2600000000
0!
0(
#2610000000
1!
1(
0)
#2620000000
0!
0(
#2630000000
1!
1(
0)
#2640000000
0!
0(
#2650000000
1!
1(
0)
#2660000000
0!
0(
#2670000000
1!
1(
0)
#2680000000
0!
0(
#2690000000
1!
1(
0)
#2700000000
0!
0(
#2710000000
1!
1(
0)
#2720000000
0!
0(
#2730000000
1!
1(
0)
#2740000000
0!
0(
#2750000000
1!
1(
0)
#2760000000
0!
0(
#2770000000
1!
1(
0)
#2780000000
0!
0(
#2790000000
1!
1(
0)
#2800000000
0!
0(
#2810000000
1!
1(
0)
#2820000000
0!
0(
#2830000000
1!
1(
0)
#2840000000
0!
0(
#2850000000
1!
1(
0)
#2860000000
0!
0(
#2870000000
1!
1(
0)
#2880000000
0!
0(
#2890000000
1!
1(
0)
#2900000000
0!
0(
#2910000000
1!
1(
0)
#2920000000
0!
0(
#2930000000
1!
1(
0)
#2940000000
0!
0(
#2950000000
1!
1(
0)
#2960000000
0!
0(
#2970000000
1!
1(
0)
#2980000000
0!
0(
#2990000000
1!
1(
0)
#3000000000
0!
0(
#3010000000
1!
1(
0)
#3020000000
0!
0(
#3030000000
1!
1(
0)
#3040000000
0!
0(
#3050000000
1!
1(
0)
#3060000000
0!
0(
#3070000000
1!
1(
0)
#3080000000
0!
0(
#3090000000
1!
1(
0)
#3100000000
0!
0(
#3110000000
1!
1(
0)
#3120000000
0!
0(
#3130000000
1!
1(
0)
#3140000000
0!
0(
#3150000000
1!
1(
0)
#3160000000
0!
0(
#3170000000
1!
1(
0)
#3180000000
0!
0(
#3190000000
1!
1(
0)
#3200000000
0!
0(
#3210000000
1!
1(
0)
#3220000000
0!
0(
#3230000000
1!
1(
0)
#3240000000
0!
0(
#3250000000
1!
1(
0)
#3260000000
0!
0(
#3270000000
1!
1(
0)
#3280000000
0!
0(
#3290000000
1!
1(
0)
#3300000000
0!
0(
#3310000000
1!
1(
0)
#3320000000
0!
0(
#3330000000
1!
1(
0)
#3340000000
0!
0(
#3350000000
1!
1(
0)
#3360000000
0!
0(
#3370000000
1!
1(
0)
#3380000000
0!
0(
#3390000000
1!
1(
0)
#3400000000
0!
0(
#3410000000
1!
1(
0)
#3420000000
0!
0(
#3430000000
1!
1(
0)
#3440000000
0!
0(
#3450000000
1!
1(
0)
#3460000000
0!
0(
#3470000000
1!
1(
0)
#3480000000
0!
0(
#3490000000
1!
1(
0)
#3500000000
0!
0(
#3510000000
1!
1(
0)
#3520000000
0!
0(
#3530000000
1!
1(
0)
#3540000000
0!
0(
#3550000000
1!
1(
0)
#3560000000
0!
0(
#3570000000
1!
1(
0)
#3580000000
0!
0(
#3590000000
1!
1(
0)
#3600000000
0!
0(
#3610000000
1!
1(
0)
#3620000000
0!
0(
#3630000000
1!
1(
0)
#3640000000
0!
0(
#3650000000
1!
1(
0)
#3660000000
0!
0(
#3670000000
1!
1(
0)
#3680000000
0!
0(
#3690000000
1!
1(
0)
#3700000000
0!
0(
#3710000000
1!
1(
0)
#3720000000
0!
0(
#3730000000
1!
1(
0)
#3740000000
0!
0(
#3750000000
1!
1(
0)
#3760000000
0!
0(
#3770000000
1!
1(
0)
#3780000000
0!
0(
#3790000000
1!
1(
0)
#3800000000
0!
0(
#3810000000
1!
1(
0)
#3820000000
0!
0(
#3830000000
1!
1(
0)
#3840000000
0!
0(
#3850000000
1!
1(
0)
#3860000000
0!
0(
#3870000000
1!
1(
0)
#3880000000
0!
0(
#3890000000
1!
1(
0)
#3900000000
0!
0(
#3910000000
1!
1(
0)
#3920000000
0!
0(
#3930000000
1!
1(
0)
#3940000000
0!
0(
#3950000000
1!
1(
0)
#3960000000
0!
0(
#3970000000
1!
1(
0)
#3980000000
0!
0(
#3990000000
1!
1(
0)
#4000000000
0!
0(
#4010000000
1!
1(
0)
#4020000000
0!
0(
#4030000000
1!
1(
0)
#4040000000
0!
0(
#4050000000
1!
1(
0)
#4060000000
0!
0(
#4070000000
1!
1(
0)
#4080000000
0!
0(
#4090000000
1!
1(
0)
#4100000000
0!
0(
#4110000000
1!
1(
0)
#4120000000
0!
0(
#4130000000
1!
1(
0)
#4140000000
0!
0(
#4150000000
1!
1(
0)
#4160000000
0!
0(
#4170000000
1!
1(
0)
#4180000000
0!
0(
#4190000000
1!
1(
0)
#4200000000
0!
0(
#4210000000
1!
1(
0)
#4220000000
0!
0(
#4230000000
1!
1(
0)
#4240000000
0!
0(
#4250000000
1!
1(
0)
#4260000000
0!
0(
#4270000000
1!
1(
0)
#4280000000
0!
0(
#4290000000
1!
1(
0)
#4300000000
0!
0(
#4310000000
1!
1(
0)
#4320000000
0!
0(
#4330000000
1!
1(
0)
#4340000000
0!
0(
#4350000000
1!
1(
0)
#4360000000
0!
0(
#4370000000
1!
1(
0)
#4380000000
0!
0(
#4390000000
1!
1(
0)
#4400000000
0!
0(
#4410000000
1!
1(
0)
#4420000000
0!
0(
#4430000000
1!
1(
0)
#4440000000
0!
0(
#4450000000
1!
1(
0)
#4460000000
0!
0(
#4470000000
1!
1(
0)
#4480000000
0!
0(
#4490000000
1!
1(
0)
#4500000000
0!
0(
#4510000000
1!
1(
0)
#4520000000
0!
0(
#4530000000
1!
1(
0)
#4540000000
0!
0(
#4550000000
1!
1(
0)
#4560000000
0!
0(
#4570000000
1!
1(
0)
#4580000000
0!
0(
#4590000000
1!
1(
0)
#4600000000
0!
0(
#4610000000
1!
1(
0)
#4620000000
0!
0(
#4630000000
1!
1(
0)
#4640000000
0!
0(
#4650000000
1!
1(
0)
#4660000000
0!
0(
#4670000000
1!
1(
0)
#4680000000
0!
0(
#4690000000
1!
1(
0)
#4700000000
0!
0(
#4710000000
1!
1(
0)
#4720000000
0!
0(
#4730000000
1!
1(
0)
#4740000000
0!
0(
#4750000000
1!
1(
0)
#4760000000
0!
0(
#4770000000
1!
1(
0)
#4780000000
0!
0(
#4790000000
1!
1(
0)
#4800000000
0!
0(
#4810000000
1!
1(
0)
#4820000000
0!
0(
#4830000000
1!
1(
0)
#4840000000
0!
0(
#4850000000
1!
1(
0)
#4860000000
0!
0(
#4870000000
1!
1(
0)
#4880000000
0!
0(
#4890000000
1!
1(
0)
#4900000000
0!
0(
#4910000000
1!
1(
0)
#4920000000
0!
0(
#4930000000
1!
1(
0)
#4940000000
0!
0(
#4950000000
1!
1(
0)
#4960000000
0!
0(
#4970000000
1!
1(
0)
#4980000000
0!
0(
#4990000000
1!
1(
0)
#5000000000
0!
0(
#5010000000
1!
1(
0)
#5020000000
0!
0(
#5030000000
1!
1(
0)
#5040000000
0!
0(
#5050000000
1!
1(
0)
#5060000000
0!
0(
#5070000000
1!
1(
0)
#5080000000
0!
0(
#5090000000
1!
1(
0)
#5100000000
0!
0(
#5110000000
1!
1(
0)
#5120000000
0!
0(
#5130000000
1!
1(
0)
#5140000000
0!
0(
#5150000000
1!
1(
0)
#5160000000
0!
0(
#5170000000
1!
1(
0)
#5180000000
0!
0(
#5190000000
1!
1(
0)
#5200000000
0!
0(
#5210000000
1!
1(
0)
#5220000000
0!
0(
#5230000000
1!
1(
0)
#5240000000
0!
0(
#5250000000
1!
1(
0)
#5260000000
0!
0(
#5270000000
1!
1(
0)
#5280000000
0!
0(
#5290000000
1!
1(
0)
#5300000000
0!
0(
#5310000000
1!
1(
0)
#5320000000
0!
0(
#5330000000
1!
1(
0)
#5340000000
0!
0(
#5350000000
1!
1(
0)
#5360000000
0!
0(
#5370000000
1!
1(
0)
#5380000000
0!
0(
#5390000000
1!
1(
0)
#5400000000
0!
0(
#5410000000
1!
1(
0)
#5420000000
0!
0(
#5430000000
1!
1(
0)
#5440000000
0!
0(
#5450000000
1!
1(
0)
#5460000000
0!
0(
#5470000000
1!
1(
0)
#5480000000
0!
0(
#5490000000
1!
1(
0)
#5500000000
0!
0(
#5510000000
1!
1(
0)
#5520000000
0!
0(
#5530000000
1!
1(
0)
#5540000000
0!
0(
#5550000000
1!
1(
0)
#5560000000
0!
0(
#5570000000
1!
1(
0)
#5580000000
0!
0(
#5590000000
1!
1(
0)
#5600000000
0!
0(
#5610000000
1!
1(
0)
#5620000000
0!
0(
#5630000000
1!
1(
0)
#5640000000
0!
0(
#5650000000
1!
1(
0)
#5660000000
0!
0(
#5670000000
1!
1(
0)
#5680000000
0!
0(
#5690000000
1!
1(
0)
#5700000000
0!
0(
#5710000000
1!
1(
0)
#5720000000
0!
0(
#5730000000
1!
1(
0)
#5740000000
0!
0(
#5750000000
1!
1(
0)
#5760000000
0!
0(
#5770000000
1!
1(
0)
#5780000000
0!
0(
#5790000000
1!
1(
0)
#5800000000
0!
0(
#5810000000
1!
1(
0)
#5820000000
0!
0(
#5830000000
1!
1(
0)
#5840000000
0!
0(
#5850000000
1!
1(
0)
#5860000000
0!
0(
#5870000000
1!
1(
0)
#5880000000
0!
0(
#5890000000
1!
1(
0)
#5900000000
0!
0(
#5910000000
1!
1(
0)
#5920000000
0!
0(
#5930000000
1!
1(
0)
#5940000000
0!
0(
#5950000000
1!
1(
0)
#5960000000
0!
0(
#5970000000
1!
1(
0)
#5980000000
0!
0(
#5990000000
1!
1(
0)
#6000000000
0!
0(
#6010000000
1!
1(
0)
#6020000000
0!
0(
#6030000000
1!
1(
0)
#6040000000
0!
0(
#6050000000
1!
1(
0)
#6060000000
0!
0(
#6070000000
1!
1(
0)
#6080000000
0!
0(
#6090000000
1!
1(
0)
#6100000000
0!
0(
#6110000000
1!
1(
0)
#6120000000
0!
0(
#6130000000
1!
1(
0)
#6140000000
0!
0(
#6150000000
1!
1(
0)
#6160000000
0!
0(
#6170000000
1!
1(
0)
#6180000000
0!
0(
#6190000000
1!
1(
0)
#6200000000
0!
0(
#6210000000
1!
1(
0)
#6220000000
0!
0(
#6230000000
1!
1(
0)
#6240000000
0!
0(
#6250000000
1!
1(
0)
#6260000000
0!
0(
#6270000000
1!
1(
0)
#6280000000
0!
0(
#6290000000
1!
1(
0)
#6300000000
0!
0(
#6310000000
1!
1(
0)
#6320000000
0!
0(
#6330000000
1!
1(
0)
#6340000000
0!
0(
#6350000000
1!
1(
0)
#6360000000
0!
0(
#6370000000
1!
1(
0)
#6380000000
0!
0(
#6390000000
1!
1(
0)
#6400000000
0!
0(
#6410000000
1!
1(
0)
#6420000000
0!
0(
#6430000000
1!
1(
0)
#6440000000
0!
0(
#6450000000
1!
1(
0)
#6460000000
0!
0(
#6470000000
1!
1(
0)
#6480000000
0!
0(
#6490000000
1!
1(
0)
#6500000000
0!
0(
#6510000000
1!
1(
0)
#6520000000
0!
0(
#6530000000
1!
1(
0)
#6540000000
0!
0(
#6550000000
1!
1(
0)
#6560000000
0!
0(
#6570000000
1!
1(
0)
#6580000000
0!
0(
#6590000000
1!
1(
0)
#6600000000
0!
0(
#6610000000
1!
1(
0)
#6620000000
0!
0(
#6630000000
1!
1(
0)
#6640000000
0!
0(
#6650000000
1!
1(
0)
#6660000000
0!
0(
#6670000000
1!
1(
0)
#6680000000
0!
0(
#6690000000
1!
1(
0)
#6700000000
0!
0(
#6710000000
1!
1(
0)
#6720000000
0!
0(
#6730000000
1!
1(
0)
#6740000000
0!
0(
#6750000000
1!
1(
0)
#6760000000
0!
0(
#6770000000
1!
1(
0)
#6780000000
0!
0(
#6790000000
1!
1(
0)
#6800000000
0!
0(
#6810000000
1!
1(
0)
#6820000000
0!
0(
#6830000000
1!
1(
0)
#6840000000
0!
0(
#6850000000
1!
1(
0)
#6860000000
0!
0(
#6870000000
1!
1(
0)
#6880000000
0!
0(
#6890000000
1!
1(
0)
#6900000000
0!
0(
#6910000000
1!
1(
0)
#6920000000
0!
0(
#6930000000
1!
1(
0)
#6940000000
0!
0(
#6950000000
1!
1(
0)
#6960000000
0!
0(
#6970000000
1!
1(
0)
#6980000000
0!
0(
#6990000000
1!
1(
0)
#7000000000
0!
0(
#7010000000
1!
1(
0)
#7020000000
0!
0(
#7030000000
1!
1(
0)
#7040000000
0!
0(
#7050000000
1!
1(
0)
#7060000000
0!
0(
#7070000000
1!
1(
0)
#7080000000
0!
0(
#7090000000
1!
1(
0)
#7100000000
0!
0(
#7110000000
1!
1(
0)
#7120000000
0!
0(
#7130000000
1!
1(
0)
#7140000000
0!
0(
#7150000000
1!
1(
0)
#7160000000
0!
0(
#7170000000
1!
1(
0)
#7180000000
0!
0(
#7190000000
1!
1(
0)
#7200000000
0!
0(
#7210000000
1!
1(
0)
#7220000000
0!
0(
#7230000000
1!
1(
0)
#7240000000
0!
0(
#7250000000
1!
1(
0)
#7260000000
0!
0(
#7270000000
1!
1(
0)
#7280000000
0!
0(
#7290000000
1!
1(
0)
#7300000000
0!
0(
#7310000000
1!
1(
0)
#7320000000
0!
0(
#7330000000
1!
1(
0)
#7340000000
0!
0(
#7350000000
1!
1(
0)
#7360000000
0!
0(
#7370000000
1!
1(
0)
#7380000000
0!
0(
#7390000000
1!
1(
0)
#7400000000
0!
0(
#7410000000
1!
1(
0)
#7420000000
0!
0(
#7430000000
1!
1(
0)
#7440000000
0!
0(
#7450000000
1!
1(
0)
#7460000000
0!
0(
#7470000000
1!
1(
0)
#7480000000
0!
0(
#7490000000
1!
1(
0)
#7500000000
0!
0(
#7510000000
1!
1(
0)
#7520000000
0!
0(
#7530000000
1!
1(
0)
#7540000000
0!
0(
#7550000000
1!
1(
0)
#7560000000
0!
0(
#7570000000
1!
1(
0)
#7580000000
0!
0(
#7590000000
1!
1(
0)
#7600000000
0!
0(
#7610000000
1!
1(
0)
#7620000000
0!
0(
#7630000000
1!
1(
0)
#7640000000
0!
0(
#7650000000
1!
1(
0)
#7660000000
0!
0(
#7670000000
1!
1(
0)
#7680000000
0!
0(
#7690000000
1!
1(
0)
#7700000000
0!
0(
#7710000000
1!
1(
0)
#7720000000
0!
0(
#7730000000
1!
1(
0)
#7740000000
0!
0(
#7750000000
1!
1(
0)
#7760000000
0!
0(
#7770000000
1!
1(
0)
#7780000000
0!
0(
#7790000000
1!
1(
0)
#7800000000
0!
0(
#7810000000
1!
1(
0)
#7820000000
0!
0(
#7830000000
1!
1(
0)
#7840000000
0!
0(
#7850000000
1!
1(
0)
#7860000000
0!
0(
#7870000000
1!
1(
0)
#7880000000
0!
0(
#7890000000
1!
1(
0)
#7900000000
0!
0(
#7910000000
1!
1(
0)
#7920000000
0!
0(
#7930000000
1!
1(
0)
#7940000000
0!
0(
#7950000000
1!
1(
0)
#7960000000
0!
0(
#7970000000
1!
1(
0)
#7980000000
0!
0(
#7990000000
1!
1(
0)
#8000000000
0!
0(
#8010000000
1!
1(
0)
#8020000000
0!
0(
#8030000000
1!
1(
0)
#8040000000
0!
0(
#8050000000
1!
1(
0)
#8060000000
0!
0(
#8070000000
1!
1(
0)
#8080000000
0!
0(
#8090000000
1!
1(
0)
#8100000000
0!
0(
#8110000000
1!
1(
0)
#8120000000
0!
0(
#8130000000
1!
1(
0)
#8140000000
0!
0(
#8150000000
1!
1(
0)
#8160000000
0!
0(
#8170000000
1!
1(
0)
#8180000000
0!
0(
#8190000000
1!
1(
0)
#8200000000
0!
0(
#8210000000
1!
1(
0)
#8220000000
0!
0(
#8230000000
1!
1(
0)
#8240000000
0!
0(
#8250000000
1!
1(
0)
#8260000000
0!
0(
#8270000000
1!
1(
0)
#8280000000
0!
0(
#8290000000
1!
1(
0)
#8300000000
0!
0(
#8310000000
1!
1(
0)
#8320000000
0!
0(
#8330000000
1!
1(
0)
#8340000000
0!
0(
#8350000000
1!
1(
0)
#8360000000
0!
0(
#8370000000
1!
1(
0)
#8380000000
0!
0(
#8390000000
1!
1(
0)
#8400000000
0!
0(
#8410000000
1!
1(
0)
#8420000000
0!
0(
#8430000000
1!
1(
0)
#8440000000
0!
0(
#8450000000
1!
1(
0)
#8460000000
0!
0(
#8470000000
1!
1(
0)
#8480000000
0!
0(
#8490000000
1!
1(
0)
#8500000000
0!
0(
#8510000000
1!
1(
0)
#8520000000
0!
0(
#8530000000
1!
1(
0)
#8540000000
0!
0(
#8550000000
1!
1(
0)
#8560000000
0!
0(
#8570000000
1!
1(
0)
#8580000000
0!
0(
#8590000000
1!
1(
0)
#8600000000
0!
0(
#8610000000
1!
1(
0)
#8620000000
0!
0(
#8630000000
1!
1(
0)
#8640000000
0!
0(
#8650000000
1!
1(
0)
#8660000000
0!
0(
#8670000000
1!
1(
0)
#8680000000
0!
0(
#8690000000
1!
1(
0)
#8700000000
0!
0(
#8710000000
1!
1(
0)
#8720000000
0!
0(
#8730000000
1!
1"
1(
1)
#8740000000
0!
0(
#8750000000
1!
1(
1)
#8760000000
0!
0(
#8770000000
1!
1(
1)
#8780000000
0!
0(
#8790000000
1!
1(
1)
#8800000000
0!
0(
#8810000000
1!
1(
1)
#8820000000
0!
0(
#8830000000
1!
1(
1)
#8840000000
0!
0(
#8850000000
1!
1(
1)
#8860000000
0!
0(
#8870000000
1!
1(
1)
#8880000000
0!
0(
#8890000000
1!
1(
1)
#8900000000
0!
0(
#8910000000
1!
1(
1)
#8920000000
0!
0(
#8930000000
1!
1(
1)
#8940000000
0!
0(
#8950000000
1!
1(
1)
#8960000000
0!
0(
#8970000000
1!
1(
1)
#8980000000
0!
0(
#8990000000
1!
1(
1)
#9000000000
0!
0(
#9010000000
1!
1(
1)
#9020000000
0!
0(
#9030000000
1!
1(
1)
#9040000000
0!
0(
#9050000000
1!
1(
1)
#9060000000
0!
0(
#9070000000
1!
1(
1)
#9080000000
0!
0(
#9090000000
1!
1(
1)
#9100000000
0!
0(
#9110000000
1!
1(
1)
#9120000000
0!
0(
#9130000000
1!
1(
1)
#9140000000
0!
0(
#9150000000
1!
1(
1)
#9160000000
0!
0(
#9170000000
1!
1(
1)
#9180000000
0!
0(
#9190000000
1!
1(
1)
#9200000000
0!
0(
#9210000000
1!
1(
1)
#9220000000
0!
0(
#9230000000
1!
1(
1)
#9240000000
0!
0(
#9250000000
1!
1(
1)
#9260000000
0!
0(
#9270000000
1!
1(
1)
#9280000000
0!
0(
#9290000000
1!
1(
1)
#9300000000
0!
0(
#9310000000
1!
1(
1)
#9320000000
0!
0(
#9330000000
1!
1(
1)
#9340000000
0!
0(
#9350000000
1!
1(
1)
#9360000000
0!
0(
#9370000000
1!
1(
1)
#9380000000
0!
0(
#9390000000
1!
1(
1)
#9400000000
0!
0(
#9410000000
1!
1(
1)
#9420000000
0!
0(
#9430000000
1!
1(
1)
#9440000000
0!
0(
#9450000000
1!
1(
1)
#9460000000
0!
0(
#9470000000
1!
1(
1)
#9480000000
0!
0(
#9490000000
1!
1(
1)
#9500000000
0!
0(
#9510000000
1!
1(
1)
#9520000000
0!
0(
#9530000000
1!
1(
1)
#9540000000
0!
0(
#9550000000
1!
1(
1)
#9560000000
0!
0(
#9570000000
1!
1(
1)
#9580000000
0!
0(
#9590000000
1!
1(
1)
#9600000000
0!
0(
#9610000000
1!
1(
1)
#9620000000
0!
0(
#9630000000
1!
1(
1)
#9640000000
0!
0(
#9650000000
1!
1(
1)
#9660000000
0!
0(
#9670000000
1!
1(
1)
#9680000000
0!
0(
#9690000000
1!
1(
1)
#9700000000
0!
0(
#9710000000
1!
1(
1)
#9720000000
0!
0(
#9730000000
1!
1(
1)
#9740000000
0!
0(
#9750000000
1!
1(
1)
#9760000000
0!
0(
#9770000000
1!
1(
1)
#9780000000
0!
0(
#9790000000
1!
1(
1)
#9800000000
0!
0(
#9810000000
1!
1(
1)
#9820000000
0!
0(
#9830000000
1!
1(
1)
#9840000000
0!
0(
#9850000000
1!
1(
1)
#9860000000
0!
0(
#9870000000
1!
1(
1)
#9880000000
0!
0(
#9890000000
1!
1(
1)
#9900000000
0!
0(
#9910000000
1!
1(
1)
#9920000000
0!
0(
#9930000000
1!
1(
1)
#9940000000
0!
0(
#9950000000
1!
1(
1)
#9960000000
0!
0(
#9970000000
1!
1(
1)
#9980000000
0!
0(
#9990000000
1!
1(
1)
#10000000000
0!
0(
#10010000000
1!
1(
1)
#10020000000
0!
0(
#10030000000
1!
1(
1)
#10040000000
0!
0(
#10050000000
1!
1(
1)
#10060000000
0!
0(
#10070000000
1!
1(
1)
#10080000000
0!
0(
#10090000000
1!
1(
1)
#10100000000
0!
0(
#10110000000
1!
1(
1)
#10120000000
0!
0(
#10130000000
1!
1(
1)
#10140000000
0!
0(
#10150000000
1!
1(
1)
#10160000000
0!
0(
#10170000000
1!
1(
1)
#10180000000
0!
0(
#10190000000
1!
1(
1)
#10200000000
0!
0(
#10210000000
1!
1(
1)
#10220000000
0!
0(
#10230000000
1!
1(
1)
#10240000000
0!
0(
#10250000000
1!
1(
1)
#10260000000
0!
0(
#10270000000
1!
1(
1)
#10280000000
0!
0(
#10290000000
1!
1(
1)
#10300000000
0!
0(
#10310000000
1!
1(
1)
#10320000000
0!
0(
#10330000000
1!
1(
1)
#10340000000
0!
0(
#10350000000
1!
1(
1)
#10360000000
0!
0(
#10370000000
1!
1(
1)
#10380000000
0!
0(
#10390000000
1!
1(
1)
#10400000000
0!
0(
#10410000000
1!
1(
1)
#10420000000
0!
0(
#10430000000
1!
1(
1)
#10440000000
0!
0(
#10450000000
1!
1(
1)
#10460000000
0!
0(
#10470000000
1!
1(
1)
#10480000000
0!
0(
#10490000000
1!
1(
1)
#10500000000
0!
0(
#10510000000
1!
1(
1)
#10520000000
0!
0(
#10530000000
1!
1(
1)
#10540000000
0!
0(
#10550000000
1!
1(
1)
#10560000000
0!
0(
#10570000000
1!
1(
1)
#10580000000
0!
0(
#10590000000
1!
1(
1)
#10600000000
0!
0(
#10610000000
1!
1(
1)
#10620000000
0!
0(
#10630000000
1!
1(
1)
#10640000000
0!
0(
#10650000000
1!
1(
1)
#10660000000
0!
0(
#10670000000
1!
1(
1)
#10680000000
0!
0(
#10690000000
1!
1(
1)
#10700000000
0!
0(
#10710000000
1!
1(
1)
#10720000000
0!
0(
#10730000000
1!
1(
1)
#10740000000
0!
0(
#10750000000
1!
1(
1)
#10760000000
0!
0(
#10770000000
1!
1(
1)
#10780000000
0!
0(
#10790000000
1!
1(
1)
#10800000000
0!
0(
#10810000000
1!
1(
1)
#10820000000
0!
0(
#10830000000
1!
1(
1)
#10840000000
0!
0(
#10850000000
1!
1(
1)
#10860000000
0!
0(
